{
	"info": {
		"_postman_id": "d768301d-37f8-4ee7-a859-f7c82a9d51c6",
		"name": "Challenge - Binar",
		"schema": "https://schema.getpostman.com/json/collection/v2.1.0/collection.json"
	},
	"item": [{
			"name": "Author",
			"item": [{
					"name": "Create",
					"request": {
						"method": "POST",
						"header": [{
							"key": "x-access-token",
							"value": "eyJhbGciOiJIUzI1NiIsInR5cCI6IkpXVCJ9.eyJpZCI6MiwiZW1haWwiOiJoYWZpZEBnbWFpbC5jb20iLCJwYXNzd29yZCI6IiQyYiQxMCRrMFQ3dGMxMVRpRXc4bjBvYzJTSld1RnNidTBWMUYwL2s4ZHg4eEhFblJnUmFsMjNwRzNBUyIsInJvbGUiOiJhZG1pbiIsImlhdCI6MTY0ODc5ODYzMSwiZXhwIjoxNjQ4ODAyMjMxfQ.Acn9-py_lqsN7goUdr0d4Ssx4tCGX1No0mU5c0OKAzg",
							"type": "default"
						}],
						"body": {
							"mode": "raw",
							"raw": "{\r\n    \"name\": \"Nadiatul Khoir\",\r\n    \"birthdate\": \"2001-04-04\",\r\n    \"gender\": \"pria\",\r\n    \"address\": \"Randumerak Paiton Probolinggo\"\r\n}",
							"options": {
								"raw": {
									"language": "json"
								}
							}
						},
						"url": {
							"raw": "localhost:3000/authors",
							"host": [
								"localhost"
							],
							"port": "3000",
							"path": [
								"authors"
							]
						}
					},
					"response": []
				},
				{
					"name": "Get All",
					"request": {
						"method": "GET",
						"header": [],
						"url": {
							"raw": "localhost:3000/authors?page=1&row=3",
							"host": [
								"localhost"
							],
							"port": "3000",
							"path": [
								"authors"
							],
							"query": [{
									"key": "page",
									"value": "1"
								},
								{
									"key": "row",
									"value": "3"
								}
							]
						}
					},
					"response": []
				},
				{
					"name": "Get By ID",
					"protocolProfileBehavior": {
						"disableBodyPruning": true
					},
					"request": {
						"method": "GET",
						"header": [{
							"key": "x-access-token",
							"value": "eyJhbGciOiJIUzI1NiIsInR5cCI6IkpXVCJ9.eyJpZCI6MSwiZW1haWwiOiJrYXJpbUBtYWlsLmNvbSIsInBhc3N3b3JkIjoiJDJiJDEwJG9xV0tFa0ljaTNkWG1kaTFrWnZiYXViYW54d2tRODNkYVZiT29zbGR2eC5BNWxRMERwZlkuIiwicm9sZSI6InVzZXIiLCJpYXQiOjE2NDg3OTg5MTksImV4cCI6MTY0ODgwMjUxOX0.Sa_XHaq8BGxQUk8O3NjMHQL9cITDdE-5r8o0ncZal1w",
							"type": "default"
						}],
						"body": {
							"mode": "raw",
							"raw": "{\r\n    \"name\": \"M. Hafidurrohman\",\r\n    \"birthdate\": \"2001-04-04\",\r\n    \"gender\": \"pria\",\r\n    \"address\": \"Randumerak Paiton Probolinggo\"\r\n}",
							"options": {
								"raw": {
									"language": "json"
								}
							}
						},
						"url": {
							"raw": "localhost:3000/authors/1",
							"host": [
								"localhost"
							],
							"port": "3000",
							"path": [
								"authors",
								"1"
							]
						}
					},
					"response": []
				},
				{
					"name": "Update",
					"request": {
						"method": "PUT",
						"header": [{
							"key": "x-access-token",
							"value": "eyJhbGciOiJIUzI1NiIsInR5cCI6IkpXVCJ9.eyJpZCI6MSwiZW1haWwiOiJrYXJpbUBtYWlsLmNvbSIsInBhc3N3b3JkIjoiJDJiJDEwJG9xV0tFa0ljaTNkWG1kaTFrWnZiYXViYW54d2tRODNkYVZiT29zbGR2eC5BNWxRMERwZlkuIiwicm9sZSI6InVzZXIiLCJpYXQiOjE2NDg3OTg5MTksImV4cCI6MTY0ODgwMjUxOX0.Sa_XHaq8BGxQUk8O3NjMHQL9cITDdE-5r8o0ncZal1w",
							"type": "default"
						}],
						"body": {
							"mode": "raw",
							"raw": "{\r\n    \"name\": \"Abdul Karim\",\r\n    \"birthdate\": \"2001-04-04\",\r\n    \"gender\": \"pria\",\r\n    \"address\": \"Kalikajar Paiton Probolinggo\"\r\n}",
							"options": {
								"raw": {
									"language": "json"
								}
							}
						},
						"url": {
							"raw": "localhost:3000/authors/1",
							"host": [
								"localhost"
							],
							"port": "3000",
							"path": [
								"authors",
								"1"
							]
						}
					},
					"response": []
				},
				{
					"name": "Delete",
					"request": {
						"method": "DELETE",
						"header": [{
							"key": "x-access-token",
							"value": "eyJhbGciOiJIUzI1NiIsInR5cCI6IkpXVCJ9.eyJpZCI6MSwiZW1haWwiOiJrYXJpbUBtYWlsLmNvbSIsInBhc3N3b3JkIjoiJDJiJDEwJG9xV0tFa0ljaTNkWG1kaTFrWnZiYXViYW54d2tRODNkYVZiT29zbGR2eC5BNWxRMERwZlkuIiwicm9sZSI6InVzZXIiLCJpYXQiOjE2NDg3OTg5MTksImV4cCI6MTY0ODgwMjUxOX0.Sa_XHaq8BGxQUk8O3NjMHQL9cITDdE-5r8o0ncZal1w",
							"type": "default"
						}],
						"body": {
							"mode": "raw",
							"raw": "{\r\n    \"name\": \"M. Hafidurrohman\",\r\n    \"birthdate\": \"2001-04-04\",\r\n    \"gender\": \"pria\",\r\n    \"address\": \"Randumerak Paiton Probolinggo\"\r\n}",
							"options": {
								"raw": {
									"language": "json"
								}
							}
						},
						"url": {
							"raw": "localhost:3000/authors/2",
							"host": [
								"localhost"
							],
							"port": "3000",
							"path": [
								"authors",
								"2"
							]
						}
					},
					"response": []
				}
			]
		},
		{
			"name": "User",
			"item": [{
					"name": "Register",
					"request": {
						"method": "POST",
						"header": [],
						"body": {
							"mode": "raw",
							"raw": "{\r\n    \"name\": \"Abdurrahman\",\r\n    \"password\": \"rahman123\",\r\n    \"birthdate\": \"1998-07-23\",\r\n    \"no_telp\": \"082218672786\",\r\n    \"address\": \"Banyuwangi Jawa Timur\",\r\n    \"role\": \"admin\"\r\n}",
							"options": {
								"raw": {
									"language": "json"
								}
							}
						},
						"url": {
							"raw": "localhost:3000/users/register",
							"host": [
								"localhost"
							],
							"port": "3000",
							"path": [
								"users",
								"register"
							]
						}
					},
					"response": []
				},
				{
					"name": "Login",
					"request": {
						"method": "POST",
						"header": [],
						"body": {
							"mode": "raw",
							"raw": "{\r\n    \"email\": \"hafid@mail.com\",\r\n    \"password\": \"hafid123\"\r\n}",
							"options": {
								"raw": {
									"language": "json"
								}
							}
						},
						"url": {
							"raw": "localhost:3000/users/login",
							"host": [
								"localhost"
							],
							"port": "3000",
							"path": [
								"users",
								"login"
							]
						}
					},
					"response": []
				}
			]
		},
		{
			"name": "Categories",
			"item": [{
					"name": "Create",
					"request": {
						"method": "POST",
						"header": [{
							"key": "x-access-token",
							"value": "eyJhbGciOiJIUzI1NiIsInR5cCI6IkpXVCJ9.eyJpZCI6MiwiZW1haWwiOiJoYWZpZEBnbWFpbC5jb20iLCJwYXNzd29yZCI6IiQyYiQxMCRrMFQ3dGMxMVRpRXc4bjBvYzJTSld1RnNidTBWMUYwL2s4ZHg4eEhFblJnUmFsMjNwRzNBUyIsInJvbGUiOiJhZG1pbiIsImlhdCI6MTY0ODc5OTAyNywiZXhwIjoxNjQ4ODAyNjI3fQ.YYpWW-5ErA3Is4fqrJKIldi-wOXlrGXnCRexSTU0Kgk",
							"type": "default"
						}],
						"body": {
							"mode": "raw",
							"raw": "{\r\n    \"category_name\": \"Romance\"\r\n}",
							"options": {
								"raw": {
									"language": "json"
								}
							}
						},
						"url": {
							"raw": "localhost:3000/categories",
							"host": [
								"localhost"
							],
							"port": "3000",
							"path": [
								"categories"
							]
						}
					},
					"response": []
				},
				{
					"name": "Get All",
					"request": {
						"method": "GET",
						"header": [],
						"url": {
							"raw": "localhost:3000/categories?page=1&row=3",
							"host": [
								"localhost"
							],
							"port": "3000",
							"path": [
								"categories"
							],
							"query": [{
									"key": "page",
									"value": "1"
								},
								{
									"key": "row",
									"value": "3"
								}
							]
						}
					},
					"response": []
				},
				{
					"name": "Get By ID",
					"request": {
						"method": "GET",
						"header": [{
							"key": "x-access-token",
							"value": "eyJhbGciOiJIUzI1NiIsInR5cCI6IkpXVCJ9.eyJpZCI6MiwiZW1haWwiOiJoYWZpZEBnbWFpbC5jb20iLCJwYXNzd29yZCI6IiQyYiQxMCRrMFQ3dGMxMVRpRXc4bjBvYzJTSld1RnNidTBWMUYwL2s4ZHg4eEhFblJnUmFsMjNwRzNBUyIsInJvbGUiOiJhZG1pbiIsImlhdCI6MTY0ODc5OTAyNywiZXhwIjoxNjQ4ODAyNjI3fQ.YYpWW-5ErA3Is4fqrJKIldi-wOXlrGXnCRexSTU0Kgk",
							"type": "default"
						}],
						"url": {
							"raw": "localhost:3000/categories/2",
							"host": [
								"localhost"
							],
							"port": "3000",
							"path": [
								"categories",
								"2"
							]
						}
					},
					"response": []
				},
				{
					"name": "Update",
					"request": {
						"method": "PUT",
						"header": [{
							"key": "x-access-token",
							"value": "eyJhbGciOiJIUzI1NiIsInR5cCI6IkpXVCJ9.eyJpZCI6MiwiZW1haWwiOiJoYWZpZEBnbWFpbC5jb20iLCJwYXNzd29yZCI6IiQyYiQxMCRrMFQ3dGMxMVRpRXc4bjBvYzJTSld1RnNidTBWMUYwL2s4ZHg4eEhFblJnUmFsMjNwRzNBUyIsInJvbGUiOiJhZG1pbiIsImlhdCI6MTY0ODc5OTAyNywiZXhwIjoxNjQ4ODAyNjI3fQ.YYpWW-5ErA3Is4fqrJKIldi-wOXlrGXnCRexSTU0Kgk",
							"type": "default"
						}],
						"body": {
							"mode": "raw",
							"raw": "{\r\n    \"category_name\": \"Romance Man\"\r\n}",
							"options": {
								"raw": {
									"language": "json"
								}
							}
						},
						"url": {
							"raw": "localhost:3000/categories/3",
							"host": [
								"localhost"
							],
							"port": "3000",
							"path": [
								"categories",
								"3"
							]
						}
					},
					"response": []
				},
				{
					"name": "Delete",
					"request": {
						"method": "DELETE",
						"header": [{
							"key": "x-access-token",
							"value": "eyJhbGciOiJIUzI1NiIsInR5cCI6IkpXVCJ9.eyJpZCI6MSwiZW1haWwiOiJrYXJpbUBtYWlsLmNvbSIsInBhc3N3b3JkIjoiJDJiJDEwJG9xV0tFa0ljaTNkWG1kaTFrWnZiYXViYW54d2tRODNkYVZiT29zbGR2eC5BNWxRMERwZlkuIiwicm9sZSI6InVzZXIiLCJpYXQiOjE2NDg3OTg5MTksImV4cCI6MTY0ODgwMjUxOX0.Sa_XHaq8BGxQUk8O3NjMHQL9cITDdE-5r8o0ncZal1w",
							"type": "default"
						}],
						"url": {
							"raw": "localhost:3000/categories/1",
							"host": [
								"localhost"
							],
							"port": "3000",
							"path": [
								"categories",
								"1"
							]
						}
					},
					"response": []
				}
			]
		},
		{
			"name": "Book",
			"item": [{
					"name": "Create",
					"request": {
						"method": "POST",
						"header": [{
							"key": "x-access-token",
							"value": "eyJhbGciOiJIUzI1NiIsInR5cCI6IkpXVCJ9.eyJlbWFpbCI6ImhhZmlkQG1haWwuY29tIiwicGFzc3dvcmQiOiIkMmIkMTAkVC5tLjFjdUlXN1pweTZSQ3p4SXl0T2UxM2dNZkxjLjJMdDFCVzEwVWVyZzFjYmp4QnIzUnEiLCJyb2xlIjoiYWRtaW4iLCJpYXQiOjE2NDkzMTIzMTIsImV4cCI6MTY0OTMxNTkxMn0.Yd4UaT8TzOOR-kqo8TutucaGM061u0nioRnmsc10XYA",
							"type": "default"
						}],
						"body": {
							"mode": "raw",
							"raw": "{\r\n    \"title\": \"Kau Seperti Malam\",\r\n    \"description\": \"Gaada deskripsi\",\r\n    \"publisher\": \"Gramedia\",\r\n    \"publish_at\": \"2020\",\r\n    \"author_id\": 1,\r\n    \"category_id\": 2\r\n}",
							"options": {
								"raw": {
									"language": "json"
								}
							}
						},
						"url": {
							"raw": "localhost:3000/books",
							"host": [
								"localhost"
							],
							"port": "3000",
							"path": [
								"books"
							]
						}
					},
					"response": []
				},
				{
					"name": "Get All",
					"request": {
						"method": "GET",
						"header": [],
						"url": {
							"raw": "localhost:3000/books?page=1&row=5",
							"host": [
								"localhost"
							],
							"port": "3000",
							"path": [
								"books"
							],
							"query": [{
									"key": "page",
									"value": "1"
								},
								{
									"key": "row",
									"value": "5"
								}
							]
						}
					},
					"response": []
				},
				{
					"name": "Get By ID",
					"request": {
						"method": "GET",
						"header": [{
							"key": "x-access-token",
							"value": "",
							"type": "default"
						}],
						"url": {
							"raw": "localhost:3000/books/1",
							"host": [
								"localhost"
							],
							"port": "3000",
							"path": [
								"books",
								"1"
							]
						}
					},
					"response": []
				},
				{
					"name": "Delete",
					"request": {
						"method": "DELETE",
						"header": [{
							"key": "x-access-token",
							"value": "",
							"type": "default"
						}],
						"url": {
							"raw": "localhost:3000/books/2",
							"host": [
								"localhost"
							],
							"port": "3000",
							"path": [
								"books",
								"2"
							]
						}
					},
					"response": []
				},
				{
					"name": "Update",
					"request": {
						"method": "PUT",
						"header": [{
							"key": "x-access-token",
							"value": "",
							"type": "default"
						}],
						"body": {
							"mode": "raw",
							"raw": "{\r\n    \"title\": \"Kau Seperti Senja dan Malam\",\r\n    \"description\": \"Gaada deskripsi\",\r\n    \"publisher\": \"Gramedia\",\r\n    \"publish_at\": \"2020\",\r\n    \"author_id\": 1,\r\n    \"category_id\": 3\r\n}",
							"options": {
								"raw": {
									"language": "json"
								}
							}
						},
						"url": {
							"raw": "localhost:3000/books/2",
							"host": [
								"localhost"
							],
							"port": "3000",
							"path": [
								"books",
								"2"
							]
						}
					},
					"response": []
				}
			]
		}
	]
}